{
    "name": "ProductInventory",
    "fields": [
        {
            "fieldName": "clientId",
            "fieldType": "String"
        },
        {
            "fieldName": "availableStock",
            "fieldType": "Integer"
        },
        {
            "fieldName": "costPrice",
            "fieldType": "BigDecimal"
        },
        {
            "fieldName": "damagedQuantity",
            "fieldType": "Integer"
        },
        {
            "fieldName": "maxQuantity",
            "fieldType": "Integer"
        },
        {
            "fieldName": "priceTag",
            "fieldType": "String"
        },
        {
            "fieldName": "productCategoryId",
            "fieldType": "String"
        },
        {
            "fieldName": "recordStatus",
            "fieldType": "Integer"
        },
        {
            "fieldName": "reorderLevel",
            "fieldType": "Integer"
        },
        {
            "fieldName": "unitPrice",
            "fieldType": "BigDecimal"
        }
    ],
    "relationships": [
        {
            "relationshipType": "many-to-one",
            "otherEntityName": "product",
            "otherEntityRelationshipName": "productInventory",
            "relationshipName": "productId",
            "otherEntityField": "name"
        }
    ],
    "changelogDate": "20190926061538",
    "entityTableName": "product_inventory",
    "dto": "no",
    "pagination": "no",
    "service": "no",
    "jpaMetamodelFiltering": false,
    "fluentMethods": true,
    "clientRootFolder": "",
    "applications": "*"
}